Re-calibrate classification probability predictions — adjust_probability_calibration • tailor
…
# apply to predictions on another subset of data
head(d_test)
#>     truth       Class1      Class2 predicted
#> 2  Class1 0.6786210540 0.321378946    Class1
#> 5  Class2 0.0162399603 0.983760040    Class2
#> 9  Class2 0.4570372595 0.542962741    Class2
#> 10 Class2 0.0976377342 0.902362266    Class2
#> 16 Class1 0.9919162773 0.008083723    Class1
#> 17 Class2 0.0004250834 0.999574917    Class2

predict(tlr_fit, d_test)
#> # A tibble: 244 × 4
#>    truth     Class1    Class2 predicted
#>    <fct>  <dbl[1d]> <dbl[1d]> <fct>    
#>  1 Class1    0.459     0.541  Class2   
#>  2 Class2    0.0396    0.960  Class2   
#>  3 Class2    0.333     0.667  Class2   
#>  4 Class2    0.0954    0.905  Class2   
#>  5 Class1    0.964     0.0359 Class1   
#>  6 Class2    0.0328    0.967  Class2   
#>  7 Class2    0.112     0.888  Class2   
#>  8 Class1    0.665     0.335  Class1   
#>  9 Class1    0.957     0.0434 Class1   
#> 10 Class2    0.0534    0.947  Class2   
#> # ℹ 234 more rows
…
