Re-calibrate numeric predictions — adjust_numeric_calibration • tailor
…
library(modeldata)
library(probably)
#> 
#> Attaching package: ‘probably’
#> The following objects are masked from ‘package:base’:
#> 
#>     as.factor, as.ordered
library(tibble)

# create example data
set.seed(1)
dat <- tibble(y = rnorm(100), y_pred = y/2 + rnorm(100))

dat
#> # A tibble: 100 × 2
#>         y y_pred
#>     <dbl>  <dbl>
#>  1 -0.626 -0.934
#>  2  0.184  0.134
#>  3 -0.836 -1.33 
#>  4  1.60   0.956
#>  5  0.330 -0.490
#>  6 -0.820  1.36 
#>  7  0.487  0.960
#>  8  0.738  1.28 
#>  9  0.576  0.672
#> 10 -0.305  1.53 
#> # ℹ 90 more rows

# specify calibration
reg_tailor <-
  tailor() %>%
  adjust_numeric_calibration(method = "linear")

# train tailor
reg_tailor_trained <- fit(reg_tailor, dat, outcome = y, estimate = y_pred)

predict(reg_tailor_trained, dat)
#> # A tibble: 100 × 2
#>         y  y_pred
#>     <dbl>   <dbl>
#>  1 -0.626 -0.257 
#>  2  0.184  0.303 
#>  3 -0.836 -0.512 
#>  4  1.60   0.479 
#>  5  0.330  0.0108
#>  6 -0.820  0.523 
#>  7  0.487  0.480 
#>  8  0.738  0.516 
#>  9  0.576  0.438 
#> 10 -0.305  0.536 
#> # ℹ 90 more rows
…
